<?xml version="1.0" encoding="UTF-8" standalone="no"?>
<!-- Created with Inkscape (http://www.inkscape.org/) -->

<svg
   width="11in"
   height="8.5in"
   viewBox="0 0 279.4 215.9"
   version="1.1"
   id="svg5"
   inkscape:version="1.2.2 (b0a8486541, 2022-12-01)"
   sodipodi:docname="flier02.svg"
   xmlns:inkscape="http://www.inkscape.org/namespaces/inkscape"
   xmlns:sodipodi="http://sodipodi.sourceforge.net/DTD/sodipodi-0.dtd"
   xmlns="http://www.w3.org/2000/svg"
   xmlns:svg="http://www.w3.org/2000/svg">
  <sodipodi:namedview
     id="namedview7"
     pagecolor="#ffffff"
     bordercolor="#666666"
     borderopacity="1.0"
     inkscape:showpageshadow="2"
     inkscape:pageopacity="0.0"
     inkscape:pagecheckerboard="0"
     inkscape:deskcolor="#d1d1d1"
     inkscape:document-units="mm"
     showgrid="false"
     inkscape:zoom="0.4204826"
     inkscape:cx="218.79621"
     inkscape:cy="393.59536"
     inkscape:window-width="1678"
     inkscape:window-height="1033"
     inkscape:window-x="0"
     inkscape:window-y="15"
     inkscape:window-maximized="0"
     inkscape:current-layer="layer1" />
  <defs
     id="defs2" />
  <g
     inkscape:label="Layer 1"
     inkscape:groupmode="layer"
     id="layer1">
    <text
       xml:space="preserve"
       style="font-style:normal;font-variant:normal;font-weight:normal;font-stretch:normal;font-size:16.8694px;line-height:1.25;font-family:'Sweden Sans';-inkscape-font-specification:'Sweden Sans';letter-spacing:0px;word-spacing:0px;stroke-width:0.395376"
       x="36.822021"
       y="32.406265"
       id="text236"><tspan
         sodipodi:role="line"
         style="font-style:normal;font-variant:normal;font-weight:normal;font-stretch:normal;font-family:Stockholm;-inkscape-font-specification:Stockholm;stroke-width:0.395376"
         x="36.822021"
         y="32.406265"
         id="tspan240">Bullied by your pet?</tspan></text>
    <text
       xml:space="preserve"
       style="font-size:44.5597px;line-height:1.25;font-family:'Veteran Typewriter';-inkscape-font-specification:'Veteran Typewriter';letter-spacing:0px;word-spacing:0px;stroke-width:1.04437"
       x="13.30652"
       y="91.919113"
       id="text248"><tspan
         sodipodi:role="line"
         id="tspan246"
         style="font-style:normal;font-variant:normal;font-weight:normal;font-stretch:normal;font-family:Stockholm;-inkscape-font-specification:Stockholm;stroke-width:1.04437"
         x="13.30652"
         y="91.919113">TAMEABLE</tspan></text>
    <text
       xml:space="preserve"
       style="font-size:12.6098px;line-height:1.25;font-family:'Veteran Typewriter';-inkscape-font-specification:'Veteran Typewriter';letter-spacing:0px;word-spacing:0px;stroke-width:0.295542"
       x="33.714718"
       y="125.85517"
       id="text302"><tspan
         sodipodi:role="line"
         style="font-style:normal;font-variant:normal;font-weight:normal;font-stretch:normal;font-family:Stockholm;-inkscape-font-specification:Stockholm;stroke-width:0.295542"
         x="33.714718"
         y="125.85517"
         id="tspan304">Therapeutic Association of</tspan><tspan
         sodipodi:role="line"
         style="font-style:normal;font-variant:normal;font-weight:normal;font-stretch:normal;font-family:Stockholm;-inkscape-font-specification:Stockholm;stroke-width:0.295542"
         x="33.714718"
         y="142.1906"
         id="tspan314">Men Enduring Animal Bullies</tspan><tspan
         sodipodi:role="line"
         style="font-style:normal;font-variant:normal;font-weight:normal;font-stretch:normal;font-family:Stockholm;-inkscape-font-specification:Stockholm;stroke-width:0.295542"
         x="33.714718"
         y="158.52602"
         id="tspan316">Liberation Effort</tspan></text>
    <text
       xml:space="preserve"
       style="font-style:normal;font-variant:normal;font-weight:normal;font-stretch:normal;font-size:14.2365px;line-height:1.25;font-family:Stockholm;-inkscape-font-specification:Stockholm;letter-spacing:0px;word-spacing:0px;stroke-width:0.333668"
       x="66.196999"
       y="193.77605"
       id="text320"><tspan
         sodipodi:role="line"
         id="tspan318"
         style="font-style:normal;font-variant:normal;font-weight:normal;font-stretch:normal;font-family:Stockholm;-inkscape-font-specification:Stockholm;stroke-width:0.333668"
         x="66.196999"
         y="193.77605">1:00pm Saturdays</tspan><tspan
         sodipodi:role="line"
         style="font-style:normal;font-variant:normal;font-weight:normal;font-stretch:normal;font-family:Stockholm;-inkscape-font-specification:Stockholm;stroke-width:0.333668"
         x="66.196999"
         y="211.57167"
         id="tspan526" /></text>
  </g>
</svg>
